<?xml version="1.0" encoding="UTF-8"?>
<svg width="957px" height="317px" viewBox="0 0 957 317" version="1.1" xmlns="http://www.w3.org/2000/svg" xmlns:xlink="http://www.w3.org/1999/xlink">
    <!-- Generator: Sketch 52.2 (67145) - http://www.bohemiancoding.com/sketch -->
    <title>Santander_Section-1_Graphic_01_Desktop-edit</title>
    <desc>Created with Sketch.</desc>
    <g id="Desktop-+-Mobile" stroke="none" stroke-width="1" fill="none" fill-rule="evenodd">
        <g id="Santander_Section-1_Graphic_01_Desktop-edit" transform="translate(-1.000000, 0.000000)">
            <g id="Labels_01" transform="translate(680.000000, 175.000000)" stroke="#00282D" stroke-width="0.7">
                <polyline id="Path" points="66.6 0 66.6 55 164.6 55"></polyline>
                <polyline id="Path" points="40.41 0 40.41 38 164.6 38"></polyline>
                <polyline id="Path" points="90.6 0 90.6 70 164.6 70"></polyline>
                <polyline id="Path" points="110.41 0 110.41 86 164.6 86"></polyline>
                <polyline id="Path" points="126.41 0 126.41 103 164.6 103"></polyline>
                <polyline id="Path" points="142.6 0 142.6 119 164.6 119"></polyline>
                <polyline id="Path" points="156.6 0 156.6 134 164.6 134"></polyline>
                <path d="M1.41,0 L1.41,11" id="Path"></path>
                <path d="M173.6,0 L173.6,11" id="Path"></path>
            </g>
            <g id="Bars_01" transform="translate(57.000000, 0.000000)">
                <rect id="Rectangle" fill="#00282D" x="0.6" y="0.5" width="317" height="80"></rect>
                <rect id="Rectangle" fill="#1B4C38" x="317.6" y="0.5" width="29" height="80"></rect>
                <rect id="Rectangle" fill="#D9D538" x="346.6" y="0.5" width="85" height="80"></rect>
                <rect id="Rectangle" fill="#33323C" x="431.6" y="0.5" width="18" height="80"></rect>
                <rect id="Rectangle" fill="#09181D" x="449.6" y="0.5" width="22" height="80"></rect>
                <rect id="Rectangle" fill="#1C4B5B" x="471.6" y="0.5" width="22" height="80"></rect>
                <rect id="Rectangle" fill="#979797" x="493.6" y="0.5" width="11" height="80"></rect>
                <rect id="Rectangle" fill="#1B4C38" x="504.6" y="0.5" width="14" height="80"></rect>
                <rect id="Rectangle" fill="#D9D538" x="518.6" y="0.5" width="7" height="80"></rect>
                <rect id="Rectangle" fill="#09181D" x="525.6" y="0.5" width="11" height="80"></rect>
                <rect id="Rectangle" fill="#239466" x="536.6" y="0.5" width="4" height="80"></rect>
                <rect id="Rectangle" fill="#7D7A16" x="540.6" y="0.5" width="14" height="80"></rect>
                <rect id="Rectangle" fill="#C7D3AC" x="554.6" y="0.5" width="48" height="80"></rect>
                <rect id="Rectangle" fill="#00282D" x="0.6" y="95" width="354" height="80"></rect>
                <rect id="Rectangle" fill="#1B4C38" x="354.6" y="95" width="107" height="80"></rect>
                <rect id="Rectangle" fill="#D9D538" x="461.6" y="95" width="88" height="80"></rect>
                <rect id="Rectangle" fill="#33323C" x="549.6" y="95" width="52" height="80"></rect>
                <rect id="Rectangle" fill="#09181D" x="601.6" y="95" width="47" height="80"></rect>
                <rect id="Rectangle" fill="#1C4B5B" x="648.6" y="95" width="29" height="80"></rect>
                <rect id="Rectangle" fill="#979797" x="677.6" y="95" width="26" height="80"></rect>
                <rect id="Rectangle" fill="#1B4C38" x="703.6" y="95" width="22" height="80"></rect>
                <rect id="Rectangle" fill="#D9D538" x="725.6" y="95" width="15" height="80"></rect>
                <rect id="Rectangle" fill="#09181D" x="740.6" y="95" width="18" height="80"></rect>
                <rect id="Rectangle" fill="#239466" x="758.6" y="95" width="15" height="80"></rect>
                <rect id="Rectangle" fill="#7D7A16" x="773.6" y="95" width="14" height="80"></rect>
                <rect id="Rectangle" fill="#C7D3AC" x="787.6" y="95" width="74" height="80"></rect>
            </g>
            <g id="Text_01" transform="translate(0.000000, 26.000000)">
                <text id="2019" fill="#00282D" font-family="Helvetica" font-size="14" font-weight="normal">
                    <tspan x="12.88" y="14.5">2019</tspan>
                </text>
                <text id="2020" fill="#00282D" font-family="Helvetica" font-size="14" font-weight="normal">
                    <tspan x="11.6" y="115">2020</tspan>
                </text>
                <path d="M26.91,40.34 L26.91,18.68" id="Path" stroke="#00282D" stroke-width="0.68"></path>
                <path d="M26.91,78.35 L26.91,100.01" id="Path" stroke="#00282D" stroke-width="0.68"></path>
                <text id="China," fill="#00282D" font-family="Helvetica" font-size="14" font-weight="normal">
                    <tspan x="57.6" y="176">China,</tspan>
                </text>
                <text id="Germany," fill="#00282D" font-family="Helvetica" font-size="14" font-weight="normal">
                    <tspan x="411.6" y="176">Germany,</tspan>
                </text>
                <text id="US," fill="#00282D" font-family="Helvetica" font-size="14" font-weight="normal">
                    <tspan x="520.6" y="176">US,</tspan>
                </text>
                <text id="France," fill="#00282D" font-family="Helvetica" font-size="14" font-weight="normal">
                    <tspan x="605.6" y="176">France,</tspan>
                </text>
                <text id="UK," fill="#00282D" font-family="Helvetica" font-size="14" font-weight="normal">
                    <tspan x="673.6" y="176">UK,</tspan>
                </text>
                <text id="Other,-298k" fill="#00282D" font-family="Helvetica" font-size="14" font-weight="normal">
                    <tspan x="849.6" y="176">Other, 298k</tspan>
                </text>
                <text id="Norway,-108k" fill="#00282D" font-family="Helvetica" font-size="14" font-weight="normal">
                    <tspan x="849.6" y="192">Norway, 108k</tspan>
                </text>
                <text id="Sweden,-96k" fill="#00282D" font-family="Helvetica" font-size="14" font-weight="normal">
                    <tspan x="849.6" y="208">Sweden, 96k</tspan>
                </text>
                <text id="Netherlands,-90k" fill="#00282D" font-family="Helvetica" font-size="14" font-weight="normal">
                    <tspan x="849.6" y="224">Netherlands, 90k</tspan>
                </text>
                <text id="Italy,-61k" fill="#00282D" font-family="Helvetica" font-size="14" font-weight="normal">
                    <tspan x="849.6" y="240">Italy, 61k</tspan>
                </text>
                <text id="South-Korea,-52k" fill="#00282D" font-family="Helvetica" font-size="14" font-weight="normal">
                    <tspan x="849.6" y="256">South Korea, 52k</tspan>
                </text>
                <text id="Belgium,-48k" fill="#00282D" font-family="Helvetica" font-size="14" font-weight="normal">
                    <tspan x="849.6" y="272">Belgium, 48k</tspan>
                </text>
                <text id="Canada,-47k" fill="#00282D" font-family="Helvetica" font-size="14" font-weight="normal">
                    <tspan x="849.6" y="288">Canada, 47k</tspan>
                </text>
                <text id="+43%" fill="#00282D" font-family="Helvetica" font-size="13" font-weight="normal">
                    <tspan x="0.94" y="61.8">+43%</tspan>
                </text>
            </g>
        </g>
    </g>
</svg>